DIS_lab/lab3/q1/q1_tb.vcd
$date
	Fri Aug 22 10:37:48 2025
$end
$version
	Icarus Verilog
$end
$timescale
	1ns
$end
$scope module testbench $end
$var wire 1 ! f $end
$var reg 1 " a $end
$var reg 1 # b $end
$var reg 1 $ c $end
$var reg 1 % d $end
$scope module q $end
$var wire 1 " a $end
$var wire 1 # b $end
$var wire 1 $ c $end
$var wire 1 % d $end
$var wire 1 ! f $end
$var wire 1 & g $end
$var wire 1 ' h $end
$var wire 1 ( i $end
$var wire 1 ) j $end
$var wire 1 * k $end
$upscope $end
$upscope $end
$enddefinitions $end
#0
$dumpvars
0*
1)
1(
1'
1&
0%
0$
0#
0"
1!
$end
#20
0(
1%
#40
0!
1*
0)
1(
0%
1$
#60
1!
0*
1)
0(
1%
#80
1(
0&
0%
0$
1#
#100
0(
1%
#120
0!
1*
0)
1(
0%
1$
#140
1!
0*
1)
0(
1%
#160
0!
1*
0'
1(
1&
0%
0$
0#
1"
#180
0(
1%
#200
0)
1(
0%
1$
#220
1)
0(
1%
#240
1!
0*
1'
1(
0&
0%
0$
1#
#260
0(
1%
#280
0!
1*
0)
1(
0%
1$
#300
1!
0*
1)
0(
1%
